// Jest Snapshot v1, https://goo.gl/fbAQLP

exports[`App should render login page 1`] = `
<div>
  <section
    data-testid="router-container"
  >
    <div
      class="scrollarea app"
    >
      <div
        class="scrollarea-content "
        style="margin-top: 0px; margin-left: 0px;"
        tabindex="1"
      >
        <section
          class="login-page"
          data-testid="login-page"
        >
          <div
            class="login-page__container"
          >
            <img
              alt="Easy carros Logo"
              class="login-page__logo"
              src="logo.svg"
            />
            <form
              autocomplete="off"
            >
              <div
                class="input"
              >
                <input
                  autocomplete="off"
                  class="input__element"
                  name="email"
                  placeholder="email"
                  required=""
                  type="email"
                  value=""
                />
              </div>
              <div
                class="input"
              >
                <input
                  autocomplete="off"
                  class="input__element"
                  name="password"
                  placeholder="senha"
                  required=""
                  type="password"
                  value=""
                />
              </div>
              <button
                class="button"
                data-testid="button"
              >
                Entrar
              </button>
            </form>
          </div>
        </section>
      </div>
    </div>
  </section>
</div>
`;
